Extension;Name;Time;Mem;OutCode
dat;08-solitaire-50-0.asp.dat;0.0;1396;0
dat;09-solitaire-50-0.asp.dat;0.0;1396;0
dat;1-solitaire-15-0.asp.dat;0.0;1396;0
dat;1-solitaire-20-0.asp.dat;0.0;1392;0
dat;1-solitaire-24-0.asp.dat;0.0;1396;0
dat;10-solitaire-24-0.asp.dat;0.0;1396;0
dat;15-solitaire-50-0.asp.dat;0.0;1392;0
dat;16-solitaire-50-0.asp.dat;0.0;1392;0
dat;17-solitaire-50-0.asp.dat;0.0;1396;0
dat;18-solitaire-50-0.asp.dat;0.0;1396;0
dat;19-solitaire-24-0.asp.dat;0.0;1396;0
dat;2-solitaire-14-0.asp.dat;0.0;1396;0
dat;2-solitaire-18-0.asp.dat;0.0;1392;0
dat;2-solitaire-25-0.asp.dat;0.0;1392;0
dat;20-solitaire-25-0.asp.dat;0.0;1392;0
dat;24-solitaire-50-0.asp.dat;0.0;1396;0
dat;25-solitaire-30-0.asp.dat;0.0;1392;0
dat;25-solitaire-50-0.asp.dat;0.0;1392;0
dat;26-solitaire-50-0.asp.dat;0.0;1392;0
dat;27-solitaire-50-0.asp.dat;0.0;1392;0
dat;3-solitaire-14-0.asp.dat;0.0;1392;0
dat;3-solitaire-19-0.asp.dat;0.0;1396;0
dat;3-solitaire-26-0.asp.dat;0.0;1396;0
dat;4-solitaire-100-0.asp.dat;0.0;1396;0
dat;4-solitaire-14-0.asp.dat;0.0;1396;0
dat;4-solitaire-27-0.asp.dat;0.0;1396;0
dat;5-solitaire-150-0.asp.dat;0.0;1396;0
dat;6-solitaire-14-0.asp.dat;0.0;1392;0
dat;9-solitaire-32-0.asp.dat;0.0;1396;0
check;solitaire_IDP2.idp+08-solitaire-50-0.asp.dat.out+08-solitaire-50-0.asp+solitaire_IDP2.idp+08-solitaire-50-0.asp.dat.out.check;0.0;1476;1
out;solitaire_IDP2.idp+08-solitaire-50-0.asp.dat.out;35.9;134112;255
check;solitaire_IDP2.idp+09-solitaire-50-0.asp.dat.out+09-solitaire-50-0.asp+solitaire_IDP2.idp+09-solitaire-50-0.asp.dat.out.check;0.0;1476;1
out;solitaire_IDP2.idp+09-solitaire-50-0.asp.dat.out;198.77;290580;137
check;solitaire_IDP2.idp+1-solitaire-15-0.asp.dat.out+1-solitaire-15-0.asp+solitaire_IDP2.idp+1-solitaire-15-0.asp.dat.out.check;0.0;1472;1
out;solitaire_IDP2.idp+1-solitaire-15-0.asp.dat.out;198.68;123032;137
check;solitaire_IDP2.idp+1-solitaire-20-0.asp.dat.out+1-solitaire-20-0.asp+solitaire_IDP2.idp+1-solitaire-20-0.asp.dat.out.check;0.0;1472;1
out;solitaire_IDP2.idp+1-solitaire-20-0.asp.dat.out;199.07;120804;137
check;solitaire_IDP2.idp+1-solitaire-24-0.asp.dat.out+1-solitaire-24-0.asp+solitaire_IDP2.idp+1-solitaire-24-0.asp.dat.out.check;0.0;1476;1
out;solitaire_IDP2.idp+1-solitaire-24-0.asp.dat.out;0.3;21796;255
check;solitaire_IDP2.idp+10-solitaire-24-0.asp.dat.out+10-solitaire-24-0.asp+solitaire_IDP2.idp+10-solitaire-24-0.asp.dat.out.check;0.0;1476;1
out;solitaire_IDP2.idp+10-solitaire-24-0.asp.dat.out;0.3;21808;255
check;solitaire_IDP2.idp+15-solitaire-50-0.asp.dat.out+15-solitaire-50-0.asp+solitaire_IDP2.idp+15-solitaire-50-0.asp.dat.out.check;0.0;1472;1
out;solitaire_IDP2.idp+15-solitaire-50-0.asp.dat.out;7.95;50384;255
check;solitaire_IDP2.idp+16-solitaire-50-0.asp.dat.out+16-solitaire-50-0.asp+solitaire_IDP2.idp+16-solitaire-50-0.asp.dat.out.check;0.0;1476;1
out;solitaire_IDP2.idp+16-solitaire-50-0.asp.dat.out;198.56;266436;137
check;solitaire_IDP2.idp+17-solitaire-50-0.asp.dat.out+17-solitaire-50-0.asp+solitaire_IDP2.idp+17-solitaire-50-0.asp.dat.out.check;0.0;1476;1
out;solitaire_IDP2.idp+17-solitaire-50-0.asp.dat.out;198.74;294180;137
check;solitaire_IDP2.idp+18-solitaire-50-0.asp.dat.out+18-solitaire-50-0.asp+solitaire_IDP2.idp+18-solitaire-50-0.asp.dat.out.check;0.0;1476;1
out;solitaire_IDP2.idp+18-solitaire-50-0.asp.dat.out;198.82;251664;137
check;solitaire_IDP2.idp+19-solitaire-24-0.asp.dat.out+19-solitaire-24-0.asp+solitaire_IDP2.idp+19-solitaire-24-0.asp.dat.out.check;0.0;1472;1
out;solitaire_IDP2.idp+19-solitaire-24-0.asp.dat.out;0.3;21832;255
check;solitaire_IDP2.idp+2-solitaire-14-0.asp.dat.out+2-solitaire-14-0.asp+solitaire_IDP2.idp+2-solitaire-14-0.asp.dat.out.check;0.0;1476;1
out;solitaire_IDP2.idp+2-solitaire-14-0.asp.dat.out;0.31;20760;255
check;solitaire_IDP2.idp+2-solitaire-18-0.asp.dat.out+2-solitaire-18-0.asp+solitaire_IDP2.idp+2-solitaire-18-0.asp.dat.out.check;0.0;1476;1
out;solitaire_IDP2.idp+2-solitaire-18-0.asp.dat.out;198.99;110216;137
check;solitaire_IDP2.idp+2-solitaire-25-0.asp.dat.out+2-solitaire-25-0.asp+solitaire_IDP2.idp+2-solitaire-25-0.asp.dat.out.check;0.0;1472;1
out;solitaire_IDP2.idp+2-solitaire-25-0.asp.dat.out;0.3;21804;255
check;solitaire_IDP2.idp+20-solitaire-25-0.asp.dat.out+20-solitaire-25-0.asp+solitaire_IDP2.idp+20-solitaire-25-0.asp.dat.out.check;0.0;1472;1
out;solitaire_IDP2.idp+20-solitaire-25-0.asp.dat.out;0.3;21812;255
check;solitaire_IDP2.idp+24-solitaire-50-0.asp.dat.out+24-solitaire-50-0.asp+solitaire_IDP2.idp+24-solitaire-50-0.asp.dat.out.check;0.0;1476;1
out;solitaire_IDP2.idp+24-solitaire-50-0.asp.dat.out;164.2;225508;255
check;solitaire_IDP2.idp+25-solitaire-30-0.asp.dat.out+25-solitaire-30-0.asp+solitaire_IDP2.idp+25-solitaire-30-0.asp.dat.out.check;0.0;1476;1
out;solitaire_IDP2.idp+25-solitaire-30-0.asp.dat.out;17.54;90020;255
check;solitaire_IDP2.idp+25-solitaire-50-0.asp.dat.out+25-solitaire-50-0.asp+solitaire_IDP2.idp+25-solitaire-50-0.asp.dat.out.check;0.0;1476;1
out;solitaire_IDP2.idp+25-solitaire-50-0.asp.dat.out;17.56;89768;255
check;solitaire_IDP2.idp+26-solitaire-50-0.asp.dat.out+26-solitaire-50-0.asp+solitaire_IDP2.idp+26-solitaire-50-0.asp.dat.out.check;0.0;1476;1
out;solitaire_IDP2.idp+26-solitaire-50-0.asp.dat.out;198.72;225208;137
check;solitaire_IDP2.idp+27-solitaire-50-0.asp.dat.out+27-solitaire-50-0.asp+solitaire_IDP2.idp+27-solitaire-50-0.asp.dat.out.check;0.0;1476;1
out;solitaire_IDP2.idp+27-solitaire-50-0.asp.dat.out;198.91;279092;137
check;solitaire_IDP2.idp+3-solitaire-14-0.asp.dat.out+3-solitaire-14-0.asp+solitaire_IDP2.idp+3-solitaire-14-0.asp.dat.out.check;0.0;1476;1
out;solitaire_IDP2.idp+3-solitaire-14-0.asp.dat.out;0.25;20268;255
check;solitaire_IDP2.idp+3-solitaire-19-0.asp.dat.out+3-solitaire-19-0.asp+solitaire_IDP2.idp+3-solitaire-19-0.asp.dat.out.check;0.0;1472;1
out;solitaire_IDP2.idp+3-solitaire-19-0.asp.dat.out;0.49;22824;255
check;solitaire_IDP2.idp+3-solitaire-26-0.asp.dat.out+3-solitaire-26-0.asp+solitaire_IDP2.idp+3-solitaire-26-0.asp.dat.out.check;0.0;1476;1
out;solitaire_IDP2.idp+3-solitaire-26-0.asp.dat.out;0.3;21808;255
check;solitaire_IDP2.idp+4-solitaire-100-0.asp.dat.out+4-solitaire-100-0.asp+solitaire_IDP2.idp+4-solitaire-100-0.asp.dat.out.check;0.0;1476;1
out;solitaire_IDP2.idp+4-solitaire-100-0.asp.dat.out;198.86;418108;137
check;solitaire_IDP2.idp+4-solitaire-14-0.asp.dat.out+4-solitaire-14-0.asp+solitaire_IDP2.idp+4-solitaire-14-0.asp.dat.out.check;0.0;1476;1
out;solitaire_IDP2.idp+4-solitaire-14-0.asp.dat.out;0.29;20496;255
check;solitaire_IDP2.idp+4-solitaire-27-0.asp.dat.out+4-solitaire-27-0.asp+solitaire_IDP2.idp+4-solitaire-27-0.asp.dat.out.check;0.0;1476;1
out;solitaire_IDP2.idp+4-solitaire-27-0.asp.dat.out;0.4;22320;255
check;solitaire_IDP2.idp+5-solitaire-150-0.asp.dat.out+5-solitaire-150-0.asp+solitaire_IDP2.idp+5-solitaire-150-0.asp.dat.out.check;0.0;1472;1
out;solitaire_IDP2.idp+5-solitaire-150-0.asp.dat.out;199.04;255132;137
check;solitaire_IDP2.idp+6-solitaire-14-0.asp.dat.out+6-solitaire-14-0.asp+solitaire_IDP2.idp+6-solitaire-14-0.asp.dat.out.check;0.0;1472;1
out;solitaire_IDP2.idp+6-solitaire-14-0.asp.dat.out;0.99;25192;255
check;solitaire_IDP2.idp+9-solitaire-32-0.asp.dat.out+9-solitaire-32-0.asp+solitaire_IDP2.idp+9-solitaire-32-0.asp.dat.out.check;0.0;1472;1
out;solitaire_IDP2.idp+9-solitaire-32-0.asp.dat.out;199.0;290600;137