Extension;Name;Time;Mem;OutCode
dat;08-solitaire-50-0.asp.dat;0.0;1388;0
check;08-solitaire-50-0.asp.dat.out+08-solitaire-50-0.asp+08-solitaire-50-0.asp.dat.out.check;0.0;1476;1
out;08-solitaire-50-0.asp.dat.out;9.75;67804;137
dat;09-solitaire-50-0.asp.dat;0.0;1388;0
check;09-solitaire-50-0.asp.dat.out+09-solitaire-50-0.asp+09-solitaire-50-0.asp.dat.out.check;0.0;1476;1
out;09-solitaire-50-0.asp.dat.out;9.74;68916;137
dat;1-solitaire-15-0.asp.dat;0.0;1388;0
check;1-solitaire-15-0.asp.dat.out+1-solitaire-15-0.asp+1-solitaire-15-0.asp.dat.out.check;0.0;1476;1
out;1-solitaire-15-0.asp.dat.out;9.78;51292;137
dat;1-solitaire-20-0.asp.dat;0.0;1388;0
check;1-solitaire-20-0.asp.dat.out+1-solitaire-20-0.asp+1-solitaire-20-0.asp.dat.out.check;0.0;1472;1
out;1-solitaire-20-0.asp.dat.out;9.89;51176;137
dat;1-solitaire-24-0.asp.dat;0.0;1388;0
check;1-solitaire-24-0.asp.dat.out+1-solitaire-24-0.asp+1-solitaire-24-0.asp.dat.out.check;0.02;1972;0
out;1-solitaire-24-0.asp.dat.out;0.79;28152;10
dat;10-solitaire-24-0.asp.dat;0.0;1384;0
check;10-solitaire-24-0.asp.dat.out+10-solitaire-24-0.asp+10-solitaire-24-0.asp.dat.out.check;0.01;1836;0
out;10-solitaire-24-0.asp.dat.out;0.78;28148;10
dat;15-solitaire-50-0.asp.dat;0.0;1384;0
check;15-solitaire-50-0.asp.dat.out+15-solitaire-50-0.asp+15-solitaire-50-0.asp.dat.out.check;0.01;2096;0
out;15-solitaire-50-0.asp.dat.out;1.49;34440;10
dat;16-solitaire-50-0.asp.dat;0.0;1388;0
check;16-solitaire-50-0.asp.dat.out+16-solitaire-50-0.asp+16-solitaire-50-0.asp.dat.out.check;0.0;1476;1
out;16-solitaire-50-0.asp.dat.out;9.74;71264;137
dat;17-solitaire-50-0.asp.dat;0.0;1388;0
check;17-solitaire-50-0.asp.dat.out+17-solitaire-50-0.asp+17-solitaire-50-0.asp.dat.out.check;0.0;1476;1
out;17-solitaire-50-0.asp.dat.out;9.79;69456;137
dat;18-solitaire-50-0.asp.dat;0.0;1384;0
check;18-solitaire-50-0.asp.dat.out+18-solitaire-50-0.asp+18-solitaire-50-0.asp.dat.out.check;0.0;1476;1
out;18-solitaire-50-0.asp.dat.out;9.77;65436;137
dat;19-solitaire-24-0.asp.dat;0.0;1384;0
check;19-solitaire-24-0.asp.dat.out+19-solitaire-24-0.asp+19-solitaire-24-0.asp.dat.out.check;0.01;1836;0
out;19-solitaire-24-0.asp.dat.out;0.81;27904;10
dat;2-solitaire-14-0.asp.dat;0.0;1388;0
check;2-solitaire-14-0.asp.dat.out+2-solitaire-14-0.asp+2-solitaire-14-0.asp.dat.out.check;0.01;1696;0
out;2-solitaire-14-0.asp.dat.out;0.78;24520;10
dat;2-solitaire-18-0.asp.dat;0.0;1388;0
check;2-solitaire-18-0.asp.dat.out+2-solitaire-18-0.asp+2-solitaire-18-0.asp.dat.out.check;0.0;1472;1
out;2-solitaire-18-0.asp.dat.out;9.78;49884;137
dat;2-solitaire-25-0.asp.dat;0.0;1388;0
check;2-solitaire-25-0.asp.dat.out+2-solitaire-25-0.asp+2-solitaire-25-0.asp.dat.out.check;0.0;1968;0
out;2-solitaire-25-0.asp.dat.out;0.82;28672;10
dat;20-solitaire-25-0.asp.dat;0.0;1388;0
check;20-solitaire-25-0.asp.dat.out+20-solitaire-25-0.asp+20-solitaire-25-0.asp.dat.out.check;0.0;1972;0
out;20-solitaire-25-0.asp.dat.out;0.84;28676;10
dat;24-solitaire-50-0.asp.dat;0.0;1384;0
check;24-solitaire-50-0.asp.dat.out+24-solitaire-50-0.asp+24-solitaire-50-0.asp.dat.out.check;0.01;1836;0
out;24-solitaire-50-0.asp.dat.out;1.96;36480;10
dat;25-solitaire-30-0.asp.dat;0.0;1388;0
check;25-solitaire-30-0.asp.dat.out+25-solitaire-30-0.asp+25-solitaire-30-0.asp.dat.out.check;0.01;2084;0
out;25-solitaire-30-0.asp.dat.out;4.8;48152;10
dat;25-solitaire-50-0.asp.dat;0.0;1384;0
check;25-solitaire-50-0.asp.dat.out+25-solitaire-50-0.asp+25-solitaire-50-0.asp.dat.out.check;0.01;2080;0
out;25-solitaire-50-0.asp.dat.out;4.85;48148;10
dat;26-solitaire-50-0.asp.dat;0.0;1388;0
check;26-solitaire-50-0.asp.dat.out+26-solitaire-50-0.asp+26-solitaire-50-0.asp.dat.out.check;0.0;1476;1
out;26-solitaire-50-0.asp.dat.out;9.8;71596;137
dat;27-solitaire-50-0.asp.dat;0.0;1388;0
check;27-solitaire-50-0.asp.dat.out+27-solitaire-50-0.asp+27-solitaire-50-0.asp.dat.out.check;0.0;1476;1
out;27-solitaire-50-0.asp.dat.out;9.78;66916;137
dat;3-solitaire-14-0.asp.dat;0.0;1384;0
check;3-solitaire-14-0.asp.dat.out+3-solitaire-14-0.asp+3-solitaire-14-0.asp.dat.out.check;0.01;1692;0
out;3-solitaire-14-0.asp.dat.out;0.87;25568;10
dat;3-solitaire-19-0.asp.dat;0.0;1388;0
check;3-solitaire-19-0.asp.dat.out+3-solitaire-19-0.asp+3-solitaire-19-0.asp.dat.out.check;0.01;1796;0
out;3-solitaire-19-0.asp.dat.out;0.85;26444;10
dat;3-solitaire-26-0.asp.dat;0.0;1388;0
check;3-solitaire-26-0.asp.dat.out+3-solitaire-26-0.asp+3-solitaire-26-0.asp.dat.out.check;0.01;1836;0
out;3-solitaire-26-0.asp.dat.out;0.85;28964;10
dat;4-solitaire-100-0.asp.dat;0.0;1388;0
check;4-solitaire-100-0.asp.dat.out+4-solitaire-100-0.asp+4-solitaire-100-0.asp.dat.out.check;0.0;1476;1
out;4-solitaire-100-0.asp.dat.out;9.52;67376;137
dat;4-solitaire-14-0.asp.dat;0.0;1388;0
check;4-solitaire-14-0.asp.dat.out+4-solitaire-14-0.asp+4-solitaire-14-0.asp.dat.out.check;0.01;1696;0
out;4-solitaire-14-0.asp.dat.out;0.89;25300;10
dat;4-solitaire-27-0.asp.dat;0.0;1388;0
check;4-solitaire-27-0.asp.dat.out+4-solitaire-27-0.asp+4-solitaire-27-0.asp.dat.out.check;0.02;1836;0
out;4-solitaire-27-0.asp.dat.out;0.92;29728;10
dat;5-solitaire-150-0.asp.dat;0.0;1388;0
check;5-solitaire-150-0.asp.dat.out+5-solitaire-150-0.asp+5-solitaire-150-0.asp.dat.out.check;0.0;1476;1
out;5-solitaire-150-0.asp.dat.out;9.4;84660;137
dat;6-solitaire-14-0.asp.dat;0.0;1384;0
check;6-solitaire-14-0.asp.dat.out+6-solitaire-14-0.asp+6-solitaire-14-0.asp.dat.out.check;0.0;1692;0
out;6-solitaire-14-0.asp.dat.out;0.78;24528;10
dat;9-solitaire-32-0.asp.dat;0.0;1388;0
check;9-solitaire-32-0.asp.dat.out+9-solitaire-32-0.asp+9-solitaire-32-0.asp.dat.out.check;0.0;1472;1
out;9-solitaire-32-0.asp.dat.out;9.86;78104;137