command; sha; outcode; user time; system time; memory; model; objective
/home/test/idp/build/bin/idp /home/test/volume/instances/N05-Graceful-Graphs/0046-prism_5_4-35-1.asp.idp /home/test/volume/instances/N05-Graceful-Graphs/0046-prism_5_4-35-1.asp.idp.struc -e "check(S_asp)"; Y29QqrDqi3z-iaUW16ROfw; 0; 0.6687179999999999; 0.072751; 25516; 1;
/home/test/idp/build/bin/idp /home/test/volume/instances/O15-StableMarriage/0012-stablemarriage-0-0.asp.idp /home/test/volume/instances/O15-StableMarriage/0012-stablemarriage-0-0.asp.idp.struc -e "check(S_asp)"; aBfadsZtFz9nWswYlfeKEg; 0; 69.915562; 0.491928; 296648; 1;
/home/test/idp/build/bin/idp /home/test/volume/instances/N08-Sokoban/0516-sokoban-200-1.asp.idp /home/test/volume/instances/N08-Sokoban/0516-sokoban-200-1.asp.idp.struc -e "check(S_asp)"; AP0rgTj2ZWqOIbA-8r4UFQ; 0; 50.37359; 0.079967; 42088; 1;
/home/test/idp/build/bin/idp /home/test/volume/instances/N07-Nomystery/0048-nomystery-76-0.asp.idp /home/test/volume/instances/N07-Nomystery/0048-nomystery-76-0.asp.idp.struc -e "check(S_asp)"; uTcP6489P4oh-s0cMVR03w; 0; 18.905082; 0.20552399999999998; 31796; 1;
/home/test/idp/build/bin/idp /home/test/volume/instances/N08-Sokoban/0047-sokoban-144-1.asp.idp /home/test/volume/instances/N08-Sokoban/0047-sokoban-144-1.asp.idp.struc -e "check(S_asp)"; t6NBoGQNV4t33NqTsYgziQ; 0; 23.665542; 0.119978; 41492; 1;
/home/test/idp/build/bin/idp /home/test/volume/instances/N09-Ricochet-Robots/0041-ricochetrobot-16-0.asp.idp /home/test/volume/instances/N09-Ricochet-Robots/0041-ricochetrobot-16-0.asp.idp.struc -e "check(S_asp)"; O9adXfJLBv3Uv826vtlHeg; 0; 719.364346; 0.35661899999999996; 60296; 1;
/home/test/idp/build/bin/idp /home/test/volume/instances/O13-Solitaire/0021-solitaire-30-0.asp.idp /home/test/volume/instances/O13-Solitaire/0021-solitaire-30-0.asp.idp.struc -e "check(S_asp)"; uXV01JAE3SY9U9tLxN-+Dw; 0; 30.252066; 0.127993; 51936; 1;
/home/test/idp/build/bin/idp /home/test/volume/instances/N01-Permutation-Pattern-Matching/0075-ppm-50-0.asp.idp /home/test/volume/instances/N01-Permutation-Pattern-Matching/0075-ppm-50-0.asp.idp.struc -e "check(S_asp)"; lO8-90WsqSpm4wQ63YLHGQ; 0; 0.186171; 0.035941; 24916; 1;
/home/test/idp/build/bin/idp /home/test/volume/instances/O15-StableMarriage/0010-stablemarriage-0-0.asp.idp /home/test/volume/instances/O15-StableMarriage/0010-stablemarriage-0-0.asp.idp.struc -e "check(S_asp)"; 38XfrdpdUf-FkUvwUfs3Ag; 0; 68.356361; 0.412921; 296884; 1;
/home/test/idp/build/bin/idp /home/test/volume/instances/O13-Solitaire/0014-solitaire-28-0.asp.idp /home/test/volume/instances/O13-Solitaire/0014-solitaire-28-0.asp.idp.struc -e "check(S_asp)"; c8Llpb83QUeZnFbnP+tXbQ; 0; 25.595224; 0.095978; 48684; 1;
/home/test/idp/build/bin/idp /home/test/volume/instances/O13-Solitaire/0002-solitaire-24-0.asp.idp /home/test/volume/instances/O13-Solitaire/0002-solitaire-24-0.asp.idp.struc -e "check(S_asp)"; r-AJADkOdA8cseZDfOgW2g; 0; 18.956415; 0.12103399999999999; 43184; 1;
/home/test/idp/build/bin/idp /home/test/volume/instances/N09-Ricochet-Robots/0011-ricochetrobot-16-0.asp.idp /home/test/volume/instances/N09-Ricochet-Robots/0011-ricochetrobot-16-0.asp.idp.struc -e "check(S_asp)"; bdxn4ENPLYRON86MPRm3Ew; 0; 711.407788; 0.799925; 60676; 1;
/home/test/idp/build/bin/idp /home/test/volume/instances/N08-Sokoban/0443-sokoban-243-1.asp.idp /home/test/volume/instances/N08-Sokoban/0443-sokoban-243-1.asp.idp.struc -e "check(S_asp)"; -K9jTfMWlFEWMwmgupnwAQ; 0; 71.124342; 0.21995699999999999; 58476; 1;
/home/test/idp/build/bin/idp /home/test/volume/instances/O13-Solitaire/0010-solitaire-27-0.asp.idp /home/test/volume/instances/O13-Solitaire/0010-solitaire-27-0.asp.idp.struc -e "check(S_asp)"; TyVL46bRWGZgp8iUmCKHwg; 0; 25.196834; 0.113087; 46896; 1;
/home/test/idp/build/bin/idp /home/test/volume/instances/O13-Solitaire/0004-solitaire-25-0.asp.idp /home/test/volume/instances/O13-Solitaire/0004-solitaire-25-0.asp.idp.struc -e "check(S_asp)"; fF3HsJImntfD56bkAd673Q; 0; 20.945069; 0.11197399999999999; 44612; 1;
/home/test/idp/build/bin/idp /home/test/volume/instances/N05-Graceful-Graphs/0002-triple_cone_6-24-1.asp.idp /home/test/volume/instances/N05-Graceful-Graphs/0002-triple_cone_6-24-1.asp.idp.struc -e "check(S_asp)"; UJdUxFGyXwmS9fTvqGn8Kw; 0; 0.618989; 0.06769; 25916; 1;
/home/test/idp/build/bin/idp /home/test/volume/instances/N08-Sokoban/0586-sokoban-63-1.asp.idp /home/test/volume/instances/N08-Sokoban/0586-sokoban-63-1.asp.idp.struc -e "check(S_asp)"; JJpJFqamDvIbD0gqPoCzGQ; 0; 6.764964; 0.07599199999999999; 31116; 1;
/home/test/idp/build/bin/idp /home/test/volume/instances/O13-Solitaire/0005-solitaire-25-0.asp.idp /home/test/volume/instances/O13-Solitaire/0005-solitaire-25-0.asp.idp.struc -e "check(S_asp)"; JVtqg0l-WMV+ipFvBZDKSw; 0; 21.754203; 0.12397799999999999; 44428; 1;
/home/test/idp/build/bin/idp /home/test/volume/instances/N01-Permutation-Pattern-Matching/0107-ppm-50-0.asp.idp /home/test/volume/instances/N01-Permutation-Pattern-Matching/0107-ppm-50-0.asp.idp.struc -e "check(S_asp)"; Y5symhiac113RY1Jx7-5Ow; 0; 0.189326; 0.035142; 25048; 1;
/home/test/idp/build/bin/idp /home/test/volume/instances/N07-Nomystery/0056-nomystery-135-0.asp.idp /home/test/volume/instances/N07-Nomystery/0056-nomystery-135-0.asp.idp.struc -e "check(S_asp)"; rha8lwV5LNKA99r1nbKgHw; 0; 3.0499; 0.105278; 30168; 1;
/home/test/idp/build/bin/idp /home/test/volume/instances/N01-Permutation-Pattern-Matching/0009-ppm-200-0.asp.idp /home/test/volume/instances/N01-Permutation-Pattern-Matching/0009-ppm-200-0.asp.idp.struc -e "check(S_asp)"; nr7HF8pHSQcuopkNEn4IFA; 0; 0.176636; 0.02384; 25924; 1;
/home/test/idp/build/bin/idp /home/test/volume/instances/O10-Crossing-Minimization/0003-crossing_minimization-9-0.asp.idp /home/test/volume/instances/O10-Crossing-Minimization/0003-crossing_minimization-9-0.asp.idp.struc -e "check(S_asp)"; tSLs1l49cffZzomiszreBw; 0; 3.5960010000000002; 0.167953; 32500; 1;18;
/home/test/idp/build/bin/idp /home/test/volume/instances/O15-StableMarriage/0025-stablemarriage-0-0.asp.idp /home/test/volume/instances/O15-StableMarriage/0025-stablemarriage-0-0.asp.idp.struc -e "check(S_asp)"; fmez8Si3Qw4+d1PtQ3jMmA; 0; 68.654196; 0.455951; 296924; 1;
/home/test/idp/build/bin/idp /home/test/volume/instances/N05-Graceful-Graphs/0027-suspended_prism_4_4-44-1.asp.idp /home/test/volume/instances/N05-Graceful-Graphs/0027-suspended_prism_4_4-44-1.asp.idp.struc -e "check(S_asp)"; ZvTq6iUEvMWNYO++TqIPyw; 0; 0.625224; 0.055618999999999995; 25952; 1;
/home/test/idp/build/bin/idp /home/test/volume/instances/N07-Nomystery/0001-nomystery-18-0.asp.idp /home/test/volume/instances/N07-Nomystery/0001-nomystery-18-0.asp.idp.struc -e "check(S_asp)"; DndczWfUon-HJMgc82i1PQ; 0; 2.399022; 0.132084; 30200; 1;
/home/test/idp/build/bin/idp /home/test/volume/instances/N05-Graceful-Graphs/0031-suspended_prism_8_2-40-1.asp.idp /home/test/volume/instances/N05-Graceful-Graphs/0031-suspended_prism_8_2-40-1.asp.idp.struc -e "check(S_asp)"; I4oQj11C3ZBznJfBM161vQ; 0; 0.680456; 0.092804; 26200; 1;
/home/test/idp/build/bin/idp /home/test/volume/instances/N08-Sokoban/0406-sokoban-31-1.asp.idp /home/test/volume/instances/N08-Sokoban/0406-sokoban-31-1.asp.idp.struc -e "check(S_asp)"; a2Cim4GidXViDiVRCmXquQ; 0; 3.841277; 0.104089; 29960; 1;
/home/test/idp/build/bin/idp /home/test/volume/instances/O13-Solitaire/0008-solitaire-26-0.asp.idp /home/test/volume/instances/O13-Solitaire/0008-solitaire-26-0.asp.idp.struc -e "check(S_asp)"; 38X-GGRFU+wItY9WhuCeDw; 0; 25.781104; 0.173173; 45848; 1;
/home/test/idp/build/bin/idp /home/test/volume/instances/N07-Nomystery/0010-nomystery-56-0.asp.idp /home/test/volume/instances/N07-Nomystery/0010-nomystery-56-0.asp.idp.struc -e "check(S_asp)"; qwqjdJ0kVo8hYdTWI7AzGg; 0; 2.275432; 0.11569099999999999; 30220; 1;
/home/test/idp/build/bin/idp /home/test/volume/instances/O15-StableMarriage/0002-stablemarriage-0-0.asp.idp /home/test/volume/instances/O15-StableMarriage/0002-stablemarriage-0-0.asp.idp.struc -e "check(S_asp)"; EipPl4XQPuOdWV+xpB39pw; 0; 68.527744; 0.33597099999999996; 296560; 1;
/home/test/idp/build/bin/idp /home/test/volume/instances/N07-Nomystery/0043-nomystery-97-0.asp.idp /home/test/volume/instances/N07-Nomystery/0043-nomystery-97-0.asp.idp.struc -e "check(S_asp)"; 9oSWFCJdeQUaMizdDR2WaA; 0; 4.411132; 0.119999; 30440; 1;
/home/test/idp/build/bin/idp /home/test/volume/instances/N07-Nomystery/0003-nomystery-50-0.asp.idp /home/test/volume/instances/N07-Nomystery/0003-nomystery-50-0.asp.idp.struc -e "check(S_asp)"; FLspZNfIZhCH5V3ByL4Znw; 0; 2.127665; 0.147919; 30276; 1;
/home/test/idp/build/bin/idp /home/test/volume/instances/O13-Solitaire/0001-solitaire-24-0.asp.idp /home/test/volume/instances/O13-Solitaire/0001-solitaire-24-0.asp.idp.struc -e "check(S_asp)"; W8jxxV6wi02eIgoJKhr1Pg; 0; 19.938197; 0.148744; 43084; 1;
/home/test/idp/build/bin/idp /home/test/volume/instances/O15-StableMarriage/0023-stablemarriage-0-0.asp.idp /home/test/volume/instances/O15-StableMarriage/0023-stablemarriage-0-0.asp.idp.struc -e "check(S_asp)"; 3wHDsQ1KE+ookqh2m4F6vQ; 0; 66.15974; 0.485154; 296732; 1;
/home/test/idp/build/bin/idp /home/test/volume/instances/N07-Nomystery/0023-nomystery-91-0.asp.idp /home/test/volume/instances/N07-Nomystery/0023-nomystery-91-0.asp.idp.struc -e "check(S_asp)"; wCpLxrXmfT6tL8bkKaNPEQ; 0; 8.580865; 0.128051; 31248; 1;
/home/test/idp/build/bin/idp /home/test/volume/instances/N07-Nomystery/0036-nomystery-47-0.asp.idp /home/test/volume/instances/N07-Nomystery/0036-nomystery-47-0.asp.idp.struc -e "check(S_asp)"; mME5WyjAjyB620l9YmOiUQ; 0; 6.875946; 0.084079; 30904; 1;
/home/test/idp/build/bin/idp /home/test/volume/instances/O13-Solitaire/0012-solitaire-27-0.asp.idp /home/test/volume/instances/O13-Solitaire/0012-solitaire-27-0.asp.idp.struc -e "check(S_asp)"; sCRxlGEWkfDGWB4fAXzqlw; 0; 24.638985; 0.07668799999999999; 47088; 1;
/home/test/idp/build/bin/idp /home/test/volume/instances/N07-Nomystery/0042-nomystery-56-0.asp.idp /home/test/volume/instances/N07-Nomystery/0042-nomystery-56-0.asp.idp.struc -e "check(S_asp)"; 3v2p5zb6SEY2RDkzWoymMA; 0; 3.945502; 0.116119; 30420; 1;
/home/test/idp/build/bin/idp /home/test/volume/instances/N07-Nomystery/0035-nomystery-28-0.asp.idp /home/test/volume/instances/N07-Nomystery/0035-nomystery-28-0.asp.idp.struc -e "check(S_asp)"; YvSP4qYgZCKWVJ5aiUZZoA; 0; 1.940306; 0.091594; 30096; 1;
/home/test/idp/build/bin/idp /home/test/volume/instances/O15-StableMarriage/0018-stablemarriage-0-0.asp.idp /home/test/volume/instances/O15-StableMarriage/0018-stablemarriage-0-0.asp.idp.struc -e "check(S_asp)"; 9PpRpz9GhvMYHUqPdjJDlw; 0; 66.468647; 0.283945; 296536; 1;
/home/test/idp/build/bin/idp /home/test/volume/instances/N09-Ricochet-Robots/0044-ricochetrobot-16-0.asp.idp /home/test/volume/instances/N09-Ricochet-Robots/0044-ricochetrobot-16-0.asp.idp.struc -e "check(S_asp)"; hLm799Zvak7IpADA4nQ1DA; 0; 705.90796; 0.432539; 61428; 1;
/home/test/idp/build/bin/idp /home/test/volume/instances/O13-Solitaire/0009-solitaire-26-0.asp.idp /home/test/volume/instances/O13-Solitaire/0009-solitaire-26-0.asp.idp.struc -e "check(S_asp)"; ZakuMzSir138-mW4uUXEdg; 0; 22.317025; 0.120019; 46620; 1;
/home/test/idp/build/bin/idp /home/test/volume/instances/N04-Connected-Density-Maximum-Still-life/0004-still_live-9-1.asp.idp /home/test/volume/instances/N04-Connected-Density-Maximum-Still-life/0004-still_live-9-1.asp.idp.struc -e "check(S_asp)"; PmcSMD0rkS+vDW6se6x6lg; 0; 0.792125; 0.045503999999999996; 34548; 1;32;
/home/test/idp/build/bin/idp /home/test/volume/instances/N07-Nomystery/0054-nomystery-117-0.asp.idp /home/test/volume/instances/N07-Nomystery/0054-nomystery-117-0.asp.idp.struc -e "check(S_asp)"; EM6kCbRIvr20Q8XdmmrS8A; 0; 13.05292; 0.16394; 31608; 1;
/home/test/idp/build/bin/idp /home/test/volume/instances/O15-StableMarriage/0014-stablemarriage-0-0.asp.idp /home/test/volume/instances/O15-StableMarriage/0014-stablemarriage-0-0.asp.idp.struc -e "check(S_asp)"; E47JUe3tPH7TrnV6rIPK4w; 0; 66.764367; 0.324814; 296644; 1;
/home/test/idp/build/bin/idp /home/test/volume/instances/O13-Solitaire/0024-solitaire-31-0.asp.idp /home/test/volume/instances/O13-Solitaire/0024-solitaire-31-0.asp.idp.struc -e "check(S_asp)"; MA42NfRTVTvEmIYY83-mzw; 0; 31.566084; 0.103962; 53784; 1;
/home/test/idp/build/bin/idp /home/test/volume/instances/N08-Sokoban/0624-sokoban-67-1.asp.idp /home/test/volume/instances/N08-Sokoban/0624-sokoban-67-1.asp.idp.struc -e "check(S_asp)"; cI-6aFgL2I2EZYKwI-Bevw; 0; 7.385363; 0.09594599999999999; 31332; 1;
/home/test/idp/build/bin/idp /home/test/volume/instances/N04-Connected-Density-Maximum-Still-life/0002-still_live-7-1.asp.idp /home/test/volume/instances/N04-Connected-Density-Maximum-Still-life/0002-still_live-7-1.asp.idp.struc -e "check(S_asp)"; Nx849EWRPLMptZ5AY-57hw; 0; 0.7646229999999999; 0.081218; 34528; 1;18;
/home/test/idp/build/bin/idp /home/test/volume/instances/N01-Permutation-Pattern-Matching/0069-ppm-70-0.asp.idp /home/test/volume/instances/N01-Permutation-Pattern-Matching/0069-ppm-70-0.asp.idp.struc -e "check(S_asp)"; CSnMzUYtL97-JlfQd+C8fA; 0; 0.19568; 0.036735; 25008; 1;
/home/test/idp/build/bin/idp /home/test/volume/instances/N05-Graceful-Graphs/0049-double_wheel_12-48-1.asp.idp /home/test/volume/instances/N05-Graceful-Graphs/0049-double_wheel_12-48-1.asp.idp.struc -e "check(S_asp)"; a7KFSOTrF-Q5wCrUArMeUA; 0; 0.708913; 0.043712; 26260; 1;
/home/test/idp/build/bin/idp /home/test/volume/instances/O10-Crossing-Minimization/0022-crossing_minimization-8-0.asp.idp /home/test/volume/instances/O10-Crossing-Minimization/0022-crossing_minimization-8-0.asp.idp.struc -e "check(S_asp)"; nzfqZQh4DtviLBvAYbtpPQ; 0; 3.831506; 0.20909699999999998; 32612; 1;14;
/home/test/idp/build/bin/idp /home/test/volume/instances/N04-Connected-Density-Maximum-Still-life/0001-still_live-6-1.asp.idp /home/test/volume/instances/N04-Connected-Density-Maximum-Still-life/0001-still_live-6-1.asp.idp.struc -e "check(S_asp)"; qAoMgwT8oDnOPo+oLoyu8g; 0; 0.7473869999999999; 0.055227; 34224; 1;14;
/home/test/idp/build/bin/idp /home/test/volume/instances/O10-Crossing-Minimization/0010-crossing_minimization-9-0.asp.idp /home/test/volume/instances/O10-Crossing-Minimization/0010-crossing_minimization-9-0.asp.idp.struc -e "check(S_asp)"; BQaHwYQ9X8mbKarXpK3o8g; 0; 3.6684989999999997; 0.172309; 32572; 1;22;
/home/test/idp/build/bin/idp /home/test/volume/instances/O10-Crossing-Minimization/0024-crossing_minimization-8-0.asp.idp /home/test/volume/instances/O10-Crossing-Minimization/0024-crossing_minimization-8-0.asp.idp.struc -e "check(S_asp)"; 8-5GZnOFxs-o2+7qqaD3oQ; 0; 3.940117; 0.22128799999999998; 32632; 1;13;
/home/test/idp/build/bin/idp /home/test/volume/instances/N08-Sokoban/0120-sokoban-63-1.asp.idp /home/test/volume/instances/N08-Sokoban/0120-sokoban-63-1.asp.idp.struc -e "check(S_asp)"; SQWVXgclsABwF8-weOdaEw; 0; 6.081057; 0.08805199999999999; 31792; 1;
/home/test/idp/build/bin/idp /home/test/volume/instances/N08-Sokoban/0948-sokoban-54-1.asp.idp /home/test/volume/instances/N08-Sokoban/0948-sokoban-54-1.asp.idp.struc -e "check(S_asp)"; FrZBhils93X1I+DU2V8heg; 0; 4.948766; 0.079918; 30896; 1;
/home/test/idp/build/bin/idp /home/test/volume/instances/O10-Crossing-Minimization/0005-crossing_minimization-9-0.asp.idp /home/test/volume/instances/O10-Crossing-Minimization/0005-crossing_minimization-9-0.asp.idp.struc -e "check(S_asp)"; ooJ+Nw7nD9ELMlb3fKHkRw; 0; 3.780961; 0.14041099999999998; 32760; 1;11;
/home/test/idp/build/bin/idp /home/test/volume/instances/O13-Solitaire/0006-solitaire-25-0.asp.idp /home/test/volume/instances/O13-Solitaire/0006-solitaire-25-0.asp.idp.struc -e "check(S_asp)"; rTELGNrf2bvWeLK-zbNEsA; 0; 21.584466; 0.132015; 44904; 1;
/home/test/idp/build/bin/idp /home/test/volume/instances/N05-Graceful-Graphs/0040-doughnut_4_5-40-1.asp.idp /home/test/volume/instances/N05-Graceful-Graphs/0040-doughnut_4_5-40-1.asp.idp.struc -e "check(S_asp)"; MBy2SUoHyMUDFC+NgNY7Jg; 0; 0.651489; 0.028652999999999998; 26056; 1;
/home/test/idp/build/bin/idp /home/test/volume/instances/N09-Ricochet-Robots/0023-ricochetrobot-16-0.asp.idp /home/test/volume/instances/N09-Ricochet-Robots/0023-ricochetrobot-16-0.asp.idp.struc -e "check(S_asp)"; Y-WAW0vEYEgJXKbnTVVrJg; 0; 721.684159; 0.431963; 61200; 1;
/home/test/idp/build/bin/idp /home/test/volume/instances/N09-Ricochet-Robots/0031-ricochetrobot-16-0.asp.idp /home/test/volume/instances/N09-Ricochet-Robots/0031-ricochetrobot-16-0.asp.idp.struc -e "check(S_asp)"; Q4MvbFHo7YMn12z4QEkw9g; 0; 702.335345; 1.027897; 60716; 1;
/home/test/idp/build/bin/idp /home/test/volume/instances/O15-StableMarriage/0009-stablemarriage-0-0.asp.idp /home/test/volume/instances/O15-StableMarriage/0009-stablemarriage-0-0.asp.idp.struc -e "check(S_asp)"; dnsNDc8c-UkttGHL47+pkg; 0; 66.911893; 0.336012; 296596; 1;
/home/test/idp/build/bin/idp /home/test/volume/instances/N07-Nomystery/0017-nomystery-82-0.asp.idp /home/test/volume/instances/N07-Nomystery/0017-nomystery-82-0.asp.idp.struc -e "check(S_asp)"; NFFbMeuc+99UlosX405nzw; 0; 21.271861; 0.111968; 31808; 1;
/home/test/idp/build/bin/idp /home/test/volume/instances/N08-Sokoban/0551-sokoban-49-1.asp.idp /home/test/volume/instances/N08-Sokoban/0551-sokoban-49-1.asp.idp.struc -e "check(S_asp)"; 2B3dz+e1Pr+EOe4TbQgfQg; 0; 6.972564; 0.055928; 32436; 1;
/home/test/idp/build/bin/idp /home/test/volume/instances/N09-Ricochet-Robots/0001-ricochetrobot-16-0.asp.idp /home/test/volume/instances/N09-Ricochet-Robots/0001-ricochetrobot-16-0.asp.idp.struc -e "check(S_asp)"; 1uirxAmEZpL8SVcYZtGQlA; 0; 660.718917; 0.41267299999999996; 59116; 1;
/home/test/idp/build/bin/idp /home/test/volume/instances/N07-Nomystery/0007-nomystery-57-0.asp.idp /home/test/volume/instances/N07-Nomystery/0007-nomystery-57-0.asp.idp.struc -e "check(S_asp)"; M00pgnH+mZZC5pssPWAxZQ; 0; 3.655666; 0.115995; 30384; 1;
/home/test/idp/build/bin/idp /home/test/volume/instances/N08-Sokoban/0371-sokoban-18-1.asp.idp /home/test/volume/instances/N08-Sokoban/0371-sokoban-18-1.asp.idp.struc -e "check(S_asp)"; tZ9lxJ7OFRhF9eQCL0q4Eg; 0; 2.015897; 0.056178; 29364; 1;
/home/test/idp/build/bin/idp /home/test/volume/instances/O13-Solitaire/0019-solitaire-30-0.asp.idp /home/test/volume/instances/O13-Solitaire/0019-solitaire-30-0.asp.idp.struc -e "check(S_asp)"; hO814YcwGwcuzjhM-x664Q; 0; 30.135287; 0.13591699999999998; 51956; 1;
/home/test/idp/build/bin/idp /home/test/volume/instances/N07-Nomystery/0030-nomystery-117-0.asp.idp /home/test/volume/instances/N07-Nomystery/0030-nomystery-117-0.asp.idp.struc -e "check(S_asp)"; Rut7fUImS8S9P0AZaGFUrQ; 0; 51.818866; 0.107985; 33160; 1;
/home/test/idp/build/bin/idp /home/test/volume/instances/N01-Permutation-Pattern-Matching/0090-ppm-50-0.asp.idp /home/test/volume/instances/N01-Permutation-Pattern-Matching/0090-ppm-50-0.asp.idp.struc -e "check(S_asp)"; VdBYE2lbhvvwthQ5Iry3kw; 0; 0.162881; 0.034581; 25876; 1;
/home/test/idp/build/bin/idp /home/test/volume/instances/O15-StableMarriage/0008-stablemarriage-0-0.asp.idp /home/test/volume/instances/O15-StableMarriage/0008-stablemarriage-0-0.asp.idp.struc -e "check(S_asp)"; GKguwvMCu84GKKI+obLkvg; 0; 66.395738; 0.343949; 296692; 1;
/home/test/idp/build/bin/idp /home/test/volume/instances/N09-Ricochet-Robots/0009-ricochetrobot-16-0.asp.idp /home/test/volume/instances/N09-Ricochet-Robots/0009-ricochetrobot-16-0.asp.idp.struc -e "check(S_asp)"; +-Yu9cTUDZlgvg5ly8EPdA; 0; 695.771746; 0.423959; 60500; 1;
/home/test/idp/build/bin/idp /home/test/volume/instances/N01-Permutation-Pattern-Matching/0117-ppm-70-0.asp.idp /home/test/volume/instances/N01-Permutation-Pattern-Matching/0117-ppm-70-0.asp.idp.struc -e "check(S_asp)"; FFijdAyhBXzy7AZ0Wz7Pqw; 0; 0.18234899999999998; 0.024329999999999997; 25824; 1;
/home/test/idp/build/bin/idp /home/test/volume/instances/O13-Solitaire/0016-solitaire-29-0.asp.idp /home/test/volume/instances/O13-Solitaire/0016-solitaire-29-0.asp.idp.struc -e "check(S_asp)"; pHLKigQ9AgHdijhopjormA; 0; 28.396973; 0.136035; 50108; 1;
/home/test/idp/build/bin/idp /home/test/volume/instances/N09-Ricochet-Robots/0037-ricochetrobot-16-0.asp.idp /home/test/volume/instances/N09-Ricochet-Robots/0037-ricochetrobot-16-0.asp.idp.struc -e "check(S_asp)"; sTswDJOrwuP6lkFj1ezfdg; 0; 653.695031; 0.8799199999999999; 58036; 1;
/home/test/idp/build/bin/idp /home/test/volume/instances/O10-Crossing-Minimization/0028-crossing_minimization-8-0.asp.idp /home/test/volume/instances/O10-Crossing-Minimization/0028-crossing_minimization-8-0.asp.idp.struc -e "check(S_asp)"; KzR23wE65tl2RWAf2aeV+g; 0; 3.886158; 0.19982899999999998; 32556; 1;16;
/home/test/idp/build/bin/idp /home/test/volume/instances/N05-Graceful-Graphs/0044-prism_6_3-30-1.asp.idp /home/test/volume/instances/N05-Graceful-Graphs/0044-prism_6_3-30-1.asp.idp.struc -e "check(S_asp)"; rwt7Qskn01h6ycxsVqqi5A; 0; 0.64094; 0.049093; 26036; 1;
/home/test/idp/build/bin/idp /home/test/volume/instances/N07-Nomystery/0040-nomystery-67-0.asp.idp /home/test/volume/instances/N07-Nomystery/0040-nomystery-67-0.asp.idp.struc -e "check(S_asp)"; b7yx8ZpNuHR8M7-jAq7uAw; 0; 1.9383249999999999; 0.115572; 30080; 1;
/home/test/idp/build/bin/idp /home/test/volume/instances/O10-Crossing-Minimization/0001-crossing_minimization-9-0.asp.idp /home/test/volume/instances/O10-Crossing-Minimization/0001-crossing_minimization-9-0.asp.idp.struc -e "check(S_asp)"; cwedISWnz7qJMSi6jj9BMQ; 0; 3.849558; 0.22905599999999998; 32784; 1;19;
/home/test/idp/build/bin/idp /home/test/volume/instances/N05-Graceful-Graphs/0037-windmill_4_5-30-1.asp.idp /home/test/volume/instances/N05-Graceful-Graphs/0037-windmill_4_5-30-1.asp.idp.struc -e "check(S_asp)"; MlkLUB8q8Z84jVhlRLuSKg; 0; 0.6073109999999999; 0.053279; 26084; 1;
/home/test/idp/build/bin/idp /home/test/volume/instances/N08-Sokoban/0298-sokoban-126-1.asp.idp /home/test/volume/instances/N08-Sokoban/0298-sokoban-126-1.asp.idp.struc -e "check(S_asp)"; xWNbgZCQc07QxauyOLQgMw; 0; 19.888829; 0.087978; 36412; 1;
/home/test/idp/build/bin/idp /home/test/volume/instances/N05-Graceful-Graphs/0039-doughnut_3_6-36-1.asp.idp /home/test/volume/instances/N05-Graceful-Graphs/0039-doughnut_3_6-36-1.asp.idp.struc -e "check(S_asp)"; ZmBj10vHlxAbQIIorIhgVw; 0; 0.627624; 0.055944; 26032; 1;
/home/test/idp/build/bin/idp /home/test/volume/instances/N07-Nomystery/0013-nomystery-77-0.asp.idp /home/test/volume/instances/N07-Nomystery/0013-nomystery-77-0.asp.idp.struc -e "check(S_asp)"; C+wdfG7edURORqHDTD96mQ; 0; 2.395922; 0.112428; 30116; 1;
/home/test/idp/build/bin/idp /home/test/volume/instances/N07-Nomystery/0052-nomystery-126-0.asp.idp /home/test/volume/instances/N07-Nomystery/0052-nomystery-126-0.asp.idp.struc -e "check(S_asp)"; ibi3K6JhA5ozzUgRyOKYVw; 0; 14.81773; 0.139961; 31724; 1;
/home/test/idp/build/bin/idp /home/test/volume/instances/O15-StableMarriage/0003-stablemarriage-0-0.asp.idp /home/test/volume/instances/O15-StableMarriage/0003-stablemarriage-0-0.asp.idp.struc -e "check(S_asp)"; fL0dSFiEfICUDN6d6SdnNw; 0; 67.910157; 0.428681; 296608; 1;
/home/test/idp/build/bin/idp /home/test/volume/instances/O13-Solitaire/0007-solitaire-26-0.asp.idp /home/test/volume/instances/O13-Solitaire/0007-solitaire-26-0.asp.idp.struc -e "check(S_asp)"; EIEQj7HsN6kh2zSO+ninRg; 0; 23.092146; 0.152693; 45412; 1;
/home/test/idp/build/bin/idp /home/test/volume/instances/N05-Graceful-Graphs/0048-triple_wheel_8-48-1.asp.idp /home/test/volume/instances/N05-Graceful-Graphs/0048-triple_wheel_8-48-1.asp.idp.struc -e "check(S_asp)"; ofpkR7YsWtEozqKoHm-QXQ; 0; 0.7126509999999999; 0.040997; 26228; 1;
/home/test/idp/build/bin/idp /home/test/volume/instances/N07-Nomystery/0015-nomystery-108-0.asp.idp /home/test/volume/instances/N07-Nomystery/0015-nomystery-108-0.asp.idp.struc -e "check(S_asp)"; Juj8KBxvVf+JTxvBTUrVHg; 0; 2.579446; 0.144656; 29992; 1;
/home/test/idp/build/bin/idp /home/test/volume/instances/N07-Nomystery/0029-nomystery-123-0.asp.idp /home/test/volume/instances/N07-Nomystery/0029-nomystery-123-0.asp.idp.struc -e "check(S_asp)"; BRYIXnHjmzT8+OvLx3iWrA; 0; 56.147266; 0.180843; 33404; 1;
/home/test/idp/build/bin/idp /home/test/volume/instances/O13-Solitaire/0018-solitaire-29-0.asp.idp /home/test/volume/instances/O13-Solitaire/0018-solitaire-29-0.asp.idp.struc -e "check(S_asp)"; QyNMCUDje5sS-h3w3ciLjw; 0; 27.90066; 0.10396699999999999; 50384; 1;
/home/test/idp/build/bin/idp /home/test/volume/instances/N09-Ricochet-Robots/0033-ricochetrobot-16-0.asp.idp /home/test/volume/instances/N09-Ricochet-Robots/0033-ricochetrobot-16-0.asp.idp.struc -e "check(S_asp)"; srmS5oTFYV8EzBukUfxAhg; 0; 689.569225; 0.355964; 60628; 1;
/home/test/idp/build/bin/idp /home/test/volume/instances/O13-Solitaire/0003-solitaire-24-0.asp.idp /home/test/volume/instances/O13-Solitaire/0003-solitaire-24-0.asp.idp.struc -e "check(S_asp)"; HV03Sv9Skt-5MV7eH0eEuw; 0; 19.222238; 0.120681; 43700; 1;
/home/test/idp/build/bin/idp /home/test/volume/instances/N07-Nomystery/0047-nomystery-74-0.asp.idp /home/test/volume/instances/N07-Nomystery/0047-nomystery-74-0.asp.idp.struc -e "check(S_asp)"; kfzrWKs9FFyLIlKH-LKKvQ; 0; 2.474607; 0.144278; 30056; 1;
/home/test/idp/build/bin/idp /home/test/volume/instances/N04-Connected-Density-Maximum-Still-life/0003-still_live-8-1.asp.idp /home/test/volume/instances/N04-Connected-Density-Maximum-Still-life/0003-still_live-8-1.asp.idp.struc -e "check(S_asp)"; 0Buo+QUmVjE4u6zGgdMV8A; 0; 0.760496; 0.047936; 34540; 1;21;
/home/test/idp/build/bin/idp /home/test/volume/instances/N05-Graceful-Graphs/0020-double_cone_12-36-1.asp.idp /home/test/volume/instances/N05-Graceful-Graphs/0020-double_cone_12-36-1.asp.idp.struc -e "check(S_asp)"; ghdl6y8SkI2ewuvwVo0MLg; 0; 0.573741; 0.06897; 26320; 1;
/home/test/idp/build/bin/idp /home/test/volume/instances/O13-Solitaire/0015-solitaire-28-0.asp.idp /home/test/volume/instances/O13-Solitaire/0015-solitaire-28-0.asp.idp.struc -e "check(S_asp)"; FZYUNVMSsURw+R+Fh4+Bxw; 0; 25.7851; 0.09662799999999999; 48920; 1;
/home/test/idp/build/bin/idp /home/test/volume/instances/N05-Graceful-Graphs/0010-triple_cone_9-36-1.asp.idp /home/test/volume/instances/N05-Graceful-Graphs/0010-triple_cone_9-36-1.asp.idp.struc -e "check(S_asp)"; NBQDicnhqghW1PB1hMGtYA; 0; 0.5594779999999999; 0.067291; 26116; 1;
/home/test/idp/build/bin/idp /home/test/volume/instances/N08-Sokoban/0191-sokoban-45-1.asp.idp /home/test/volume/instances/N08-Sokoban/0191-sokoban-45-1.asp.idp.struc -e "check(S_asp)"; FlZ6hyjrHnbiv57sbl4utQ; 0; 3.886374; 0.06394799999999999; 30364; 1;
/home/test/idp/build/bin/idp /home/test/volume/instances/N05-Graceful-Graphs/0001-quadruple_cone_5-25-1.asp.idp /home/test/volume/instances/N05-Graceful-Graphs/0001-quadruple_cone_5-25-1.asp.idp.struc -e "check(S_asp)"; vaBIT58iNdWPuIjbr++uKQ; 0; 0.587451; 0.087005; 26120; 1;
/home/test/idp/build/bin/idp /home/test/volume/instances/N09-Ricochet-Robots/0003-ricochetrobot-16-0.asp.idp /home/test/volume/instances/N09-Ricochet-Robots/0003-ricochetrobot-16-0.asp.idp.struc -e "check(S_asp)"; z4C2D-nzREDKpFbbIrSFLA; 0; 706.994143; 0.947931; 60064; 1;
/home/test/idp/build/bin/idp /home/test/volume/instances/O13-Solitaire/0017-solitaire-29-0.asp.idp /home/test/volume/instances/O13-Solitaire/0017-solitaire-29-0.asp.idp.struc -e "check(S_asp)"; MoOns7GI8Tbjd+ZT0PEHrg; 0; 27.861386; 0.12086999999999999; 50632; 1;
/home/test/idp/build/bin/idp /home/test/volume/instances/O15-StableMarriage/0020-stablemarriage-0-0.asp.idp /home/test/volume/instances/O15-StableMarriage/0020-stablemarriage-0-0.asp.idp.struc -e "check(S_asp)"; QxhcEWzM6O89Y3EoHYrppQ; 0; 66.062348; 0.44797699999999996; 296892; 1;
/home/test/idp/build/bin/idp /home/test/volume/instances/N08-Sokoban/0156-sokoban-24-1.asp.idp /home/test/volume/instances/N08-Sokoban/0156-sokoban-24-1.asp.idp.struc -e "check(S_asp)"; LH4e3ZqTKXOseUYtblBW2A; 0; 2.664243; 0.09276799999999999; 28692; 1;
/home/test/idp/build/bin/idp /home/test/volume/instances/N09-Ricochet-Robots/0017-ricochetrobot-16-0.asp.idp /home/test/volume/instances/N09-Ricochet-Robots/0017-ricochetrobot-16-0.asp.idp.struc -e "check(S_asp)"; pfnKoikUnXD50sRCSrcEow; 0; 695.651763; 0.377172; 60844; 1;
/home/test/idp/build/bin/idp /home/test/volume/instances/N07-Nomystery/0039-nomystery-42-0.asp.idp /home/test/volume/instances/N07-Nomystery/0039-nomystery-42-0.asp.idp.struc -e "check(S_asp)"; PPNhBdrsvtByjTBxKojlCA; 0; 2.878167; 0.09680599999999999; 30420; 1;
/home/test/idp/build/bin/idp /home/test/volume/instances/N08-Sokoban/0226-sokoban-80-1.asp.idp /home/test/volume/instances/N08-Sokoban/0226-sokoban-80-1.asp.idp.struc -e "check(S_asp)"; hUTAeKTistStYXWLPLuK+Q; 0; 8.482252; 0.081056; 32144; 1;
/home/test/idp/build/bin/idp /home/test/volume/instances/N05-Graceful-Graphs/0029-windmill_4_4-24-1.asp.idp /home/test/volume/instances/N05-Graceful-Graphs/0029-windmill_4_4-24-1.asp.idp.struc -e "check(S_asp)"; UsAWgDuEixXJRoUAcgT0-A; 0; 0.591218; 0.043807; 26016; 1;
/home/test/idp/build/bin/idp /home/test/volume/instances/N07-Nomystery/0045-nomystery-44-0.asp.idp /home/test/volume/instances/N07-Nomystery/0045-nomystery-44-0.asp.idp.struc -e "check(S_asp)"; aU3hATmh-++I8drkwPEPwg; 0; 2.196926; 0.14055299999999998; 30088; 1;
/home/test/idp/build/bin/idp /home/test/volume/instances/N07-Nomystery/0020-nomystery-69-0.asp.idp /home/test/volume/instances/N07-Nomystery/0020-nomystery-69-0.asp.idp.struc -e "check(S_asp)"; 12XP8P+8XtzPbj+VFtQQxQ; -11; 0.9766999999999999; 0.089394; 27224; 
/home/test/idp/build/bin/idp /home/test/volume/instances/N07-Nomystery/0002-nomystery-32-0.asp.idp /home/test/volume/instances/N07-Nomystery/0002-nomystery-32-0.asp.idp.struc -e "check(S_asp)"; f3GTxxaG7gB7CzICdUHUyQ; 0; 2.441269; 0.137397; 30176; 1;
/home/test/idp/build/bin/idp /home/test/volume/instances/O15-StableMarriage/0006-stablemarriage-0-0.asp.idp /home/test/volume/instances/O15-StableMarriage/0006-stablemarriage-0-0.asp.idp.struc -e "check(S_asp)"; 3nCDC712bpNVP0x4q1KNag; 0; 67.926452; 0.407956; 296940; 1;
/home/test/idp/build/bin/idp /home/test/volume/instances/O13-Solitaire/0013-solitaire-28-0.asp.idp /home/test/volume/instances/O13-Solitaire/0013-solitaire-28-0.asp.idp.struc -e "check(S_asp)"; u0uWdfMd8v8MTJIVQ08EYw; 0; 25.699968; 0.11999299999999999; 48596; 1;
/home/test/idp/build/bin/idp /home/test/volume/instances/N07-Nomystery/0009-nomystery-63-0.asp.idp /home/test/volume/instances/N07-Nomystery/0009-nomystery-63-0.asp.idp.struc -e "check(S_asp)"; N7x5i7tzIA-ZWRQ+CI8MtA; 0; 2.164219; 0.076238; 30292; 1;
/home/test/idp/build/bin/idp /home/test/volume/instances/N07-Nomystery/0011-nomystery-68-0.asp.idp /home/test/volume/instances/N07-Nomystery/0011-nomystery-68-0.asp.idp.struc -e "check(S_asp)"; O5s8fCV4q8Nqaxev66-pCg; 0; 2.3618959999999998; 0.097092; 30136; 1;
/home/test/idp/build/bin/idp /home/test/volume/instances/N07-Nomystery/0021-nomystery-80-0.asp.idp /home/test/volume/instances/N07-Nomystery/0021-nomystery-80-0.asp.idp.struc -e "check(S_asp)"; wQ2mk3aBKhCYJLYKoKBxNQ; 0; 7.213901; 0.080885; 31076; 1;
/home/test/idp/build/bin/idp /home/test/volume/instances/N08-Sokoban/0480-sokoban-183-1.asp.idp /home/test/volume/instances/N08-Sokoban/0480-sokoban-183-1.asp.idp.struc -e "check(S_asp)"; y2npiYnbEeM8zJIhZR4A5A; 0; 54.484488; 0.09998299999999999; 46188; 1;
/home/test/idp/build/bin/idp /home/test/volume/instances/N01-Permutation-Pattern-Matching/0194-ppm-120-0.asp.idp /home/test/volume/instances/N01-Permutation-Pattern-Matching/0194-ppm-120-0.asp.idp.struc -e "check(S_asp)"; 9pQdoKAYdx3kjsFD8tlbLw; 0; 0.17684; 0.019021; 25036; 1;
/home/test/idp/build/bin/idp /home/test/volume/instances/N07-Nomystery/0057-nomystery-101-0.asp.idp /home/test/volume/instances/N07-Nomystery/0057-nomystery-101-0.asp.idp.struc -e "check(S_asp)"; KsTz-kap6OAuZ3DokREdxw; 0; 37.664534; 0.139936; 32632; 1;
/home/test/idp/build/bin/idp /home/test/volume/instances/O15-StableMarriage/0011-stablemarriage-0-0.asp.idp /home/test/volume/instances/O15-StableMarriage/0011-stablemarriage-0-0.asp.idp.struc -e "check(S_asp)"; GEFcG6+waUC2p4w0B43jaw; 0; 68.035763; 0.295939; 296960; 1;
/home/test/idp/build/bin/idp /home/test/volume/instances/O13-Solitaire/0011-solitaire-27-0.asp.idp /home/test/volume/instances/O13-Solitaire/0011-solitaire-27-0.asp.idp.struc -e "check(S_asp)"; zUZIJhDsEuezDVJWH7xmFQ; 0; 24.839656; 0.143943; 47128; 1;
/home/test/idp/build/bin/idp /home/test/volume/instances/N07-Nomystery/0027-nomystery-172-0.asp.idp /home/test/volume/instances/N07-Nomystery/0027-nomystery-172-0.asp.idp.struc -e "check(S_asp)"; MuKUtfioqSWghEy0YhdrBA; 0; 6.288371; 0.163941; 31056; 1;
/home/test/idp/build/bin/idp /home/test/volume/instances/O15-StableMarriage/0026-stablemarriage-0-0.asp.idp /home/test/volume/instances/O15-StableMarriage/0026-stablemarriage-0-0.asp.idp.struc -e "check(S_asp)"; mDowHg2AGEwmNKTc4RmYBg; 0; 65.628515; 0.5198929999999999; 296444; 1;
