Extension;Name;Time;Mem;OutCode
dat;08-solitaire-50-0.asp.dat;0.0;1396;0
check;08-solitaire-50-0.asp.dat.out+08-solitaire-50-0.asp+08-solitaire-50-0.asp.dat.out.check;0.0;1472;1
out;08-solitaire-50-0.asp.dat.out;198.81;330288;137
dat;09-solitaire-50-0.asp.dat;0.0;1396;0
check;09-solitaire-50-0.asp.dat.out+09-solitaire-50-0.asp+09-solitaire-50-0.asp.dat.out.check;0.0;1472;1
out;09-solitaire-50-0.asp.dat.out;198.98;331392;137
dat;1-solitaire-15-0.asp.dat;0.0;1396;0
check;1-solitaire-15-0.asp.dat.out+1-solitaire-15-0.asp+1-solitaire-15-0.asp.dat.out.check;0.0;1472;1
out;1-solitaire-15-0.asp.dat.out;198.9;159460;137
dat;1-solitaire-20-0.asp.dat;0.0;1396;0
check;1-solitaire-20-0.asp.dat.out+1-solitaire-20-0.asp+1-solitaire-20-0.asp.dat.out.check;0.0;1476;1
out;1-solitaire-20-0.asp.dat.out;198.96;189692;137
dat;1-solitaire-24-0.asp.dat;0.0;1392;0
check;1-solitaire-24-0.asp.dat.out+1-solitaire-24-0.asp+1-solitaire-24-0.asp.dat.out.check;0.02;1836;0
out;1-solitaire-24-0.asp.dat.out;0.35;30528;10
dat;10-solitaire-24-0.asp.dat;0.0;1396;0
check;10-solitaire-24-0.asp.dat.out+10-solitaire-24-0.asp+10-solitaire-24-0.asp.dat.out.check;0.02;1836;0
out;10-solitaire-24-0.asp.dat.out;0.34;30540;10
dat;15-solitaire-50-0.asp.dat;0.0;1396;0
check;15-solitaire-50-0.asp.dat.out+15-solitaire-50-0.asp+15-solitaire-50-0.asp.dat.out.check;0.0;2068;0
out;15-solitaire-50-0.asp.dat.out;1.21;38524;10
dat;16-solitaire-50-0.asp.dat;0.0;1396;0
check;16-solitaire-50-0.asp.dat.out+16-solitaire-50-0.asp+16-solitaire-50-0.asp.dat.out.check;0.0;1476;1
out;16-solitaire-50-0.asp.dat.out;198.84;335124;137
dat;17-solitaire-50-0.asp.dat;0.0;1392;0
check;17-solitaire-50-0.asp.dat.out+17-solitaire-50-0.asp+17-solitaire-50-0.asp.dat.out.check;0.0;1476;1
out;17-solitaire-50-0.asp.dat.out;198.86;333576;137
dat;18-solitaire-50-0.asp.dat;0.0;1396;0
check;18-solitaire-50-0.asp.dat.out+18-solitaire-50-0.asp+18-solitaire-50-0.asp.dat.out.check;0.0;1472;1
out;18-solitaire-50-0.asp.dat.out;198.94;351860;137
dat;19-solitaire-24-0.asp.dat;0.0;1392;0
check;19-solitaire-24-0.asp.dat.out+19-solitaire-24-0.asp+19-solitaire-24-0.asp.dat.out.check;0.01;1836;0
out;19-solitaire-24-0.asp.dat.out;0.36;30552;10
dat;2-solitaire-14-0.asp.dat;0.0;1396;0
check;2-solitaire-14-0.asp.dat.out+2-solitaire-14-0.asp+2-solitaire-14-0.asp.dat.out.check;0.01;1572;0
out;2-solitaire-14-0.asp.dat.out;0.89;26352;10
dat;2-solitaire-18-0.asp.dat;0.0;1396;0
check;2-solitaire-18-0.asp.dat.out+2-solitaire-18-0.asp+2-solitaire-18-0.asp.dat.out.check;0.0;1472;1
out;2-solitaire-18-0.asp.dat.out;199.1;169740;137
dat;2-solitaire-25-0.asp.dat;0.0;1396;0
check;2-solitaire-25-0.asp.dat.out+2-solitaire-25-0.asp+2-solitaire-25-0.asp.dat.out.check;0.01;1972;0
out;2-solitaire-25-0.asp.dat.out;0.51;31864;10
dat;20-solitaire-25-0.asp.dat;0.0;1396;0
check;20-solitaire-25-0.asp.dat.out+20-solitaire-25-0.asp+20-solitaire-25-0.asp.dat.out.check;0.01;1972;0
out;20-solitaire-25-0.asp.dat.out;0.35;31324;10
dat;24-solitaire-50-0.asp.dat;0.0;1396;0
check;24-solitaire-50-0.asp.dat.out+24-solitaire-50-0.asp+24-solitaire-50-0.asp.dat.out.check;0.02;2072;0
out;24-solitaire-50-0.asp.dat.out;6.36;62276;10
dat;25-solitaire-30-0.asp.dat;0.0;1396;0
check;25-solitaire-30-0.asp.dat.out+25-solitaire-30-0.asp+25-solitaire-30-0.asp.dat.out.check;0.0;1472;1
out;25-solitaire-30-0.asp.dat.out;199.01;340700;137
dat;25-solitaire-50-0.asp.dat;0.0;1392;0
check;25-solitaire-50-0.asp.dat.out+25-solitaire-50-0.asp+25-solitaire-50-0.asp.dat.out.check;0.0;1476;1
out;25-solitaire-50-0.asp.dat.out;198.88;339260;137
dat;26-solitaire-50-0.asp.dat;0.0;1396;0
check;26-solitaire-50-0.asp.dat.out+26-solitaire-50-0.asp+26-solitaire-50-0.asp.dat.out.check;0.0;1472;1
out;26-solitaire-50-0.asp.dat.out;199.04;375772;137
dat;27-solitaire-50-0.asp.dat;0.0;1392;0
check;27-solitaire-50-0.asp.dat.out+27-solitaire-50-0.asp+27-solitaire-50-0.asp.dat.out.check;0.0;1472;1
out;27-solitaire-50-0.asp.dat.out;198.72;372344;137
dat;3-solitaire-14-0.asp.dat;0.0;1396;0
check;3-solitaire-14-0.asp.dat.out+3-solitaire-14-0.asp+3-solitaire-14-0.asp.dat.out.check;0.01;1572;0
out;3-solitaire-14-0.asp.dat.out;0.34;23456;10
dat;3-solitaire-19-0.asp.dat;0.0;1392;0
check;3-solitaire-19-0.asp.dat.out+3-solitaire-19-0.asp+3-solitaire-19-0.asp.dat.out.check;0.01;1808;0
out;3-solitaire-19-0.asp.dat.out;0.48;27380;10
dat;3-solitaire-26-0.asp.dat;0.0;1396;0
check;3-solitaire-26-0.asp.dat.out+3-solitaire-26-0.asp+3-solitaire-26-0.asp.dat.out.check;0.02;2056;0
out;3-solitaire-26-0.asp.dat.out;0.52;32612;10
dat;4-solitaire-100-0.asp.dat;0.0;1396;0
check;4-solitaire-100-0.asp.dat.out+4-solitaire-100-0.asp+4-solitaire-100-0.asp.dat.out.check;0.0;1476;1
out;4-solitaire-100-0.asp.dat.out;198.56;466204;137
dat;4-solitaire-14-0.asp.dat;0.0;1396;0
check;4-solitaire-14-0.asp.dat.out+4-solitaire-14-0.asp+4-solitaire-14-0.asp.dat.out.check;0.0;1572;0
out;4-solitaire-14-0.asp.dat.out;0.32;23220;10
dat;4-solitaire-27-0.asp.dat;0.0;1392;0
check;4-solitaire-27-0.asp.dat.out+4-solitaire-27-0.asp+4-solitaire-27-0.asp.dat.out.check;0.01;1836;0
out;4-solitaire-27-0.asp.dat.out;0.44;32892;10
dat;5-solitaire-150-0.asp.dat;0.0;1396;0
check;5-solitaire-150-0.asp.dat.out+5-solitaire-150-0.asp+5-solitaire-150-0.asp.dat.out.check;0.0;1472;1
out;5-solitaire-150-0.asp.dat.out;198.81;417716;137
dat;6-solitaire-14-0.asp.dat;0.0;1392;0
check;6-solitaire-14-0.asp.dat.out+6-solitaire-14-0.asp+6-solitaire-14-0.asp.dat.out.check;0.0;1572;0
out;6-solitaire-14-0.asp.dat.out;0.46;23992;10
dat;9-solitaire-32-0.asp.dat;0.0;1396;0
check;9-solitaire-32-0.asp.dat.out+9-solitaire-32-0.asp+9-solitaire-32-0.asp.dat.out.check;0.0;1476;1
out;9-solitaire-32-0.asp.dat.out;198.82;339776;137